<?xml version="1.0" encoding="UTF-8"?><svg xmlns="http://www.w3.org/2000/svg" viewBox="0 0 36 36">
 <g id="change1_1"><path d="m13 32h20s3 0 3-4c0-2 0-6-1-7s-8-7-11-7h-6c-3 0-10 7-10 7l-4 1s-3 1-3 3v3s-1 0.338-1 1.957c0 2.043 2 2.043 2 2.043h11z" fill="#DD2E44"/></g>
 <g id="change2_1"><path d="m20 16h-2c-2 0-8 6-8 6s4.997-0.263 10-0.519v-5.481zm10 3c-1-1-5-3-7-3h-1v5.379c4.011-0.204 7.582-0.379 8-0.379 1 0 1-1 0-2z" fill="#BBDDF5"/></g>
 <g id="change3_1"><circle cx="10" cy="31" fill="#292F33" r="4"/></g>
 <g id="change4_1"><circle cx="10" cy="31" fill="#CCD6DD" r="2"/></g>
 <g id="change3_2"><circle cx="27" cy="31" fill="#292F33" r="4"/></g>
 <g id="change4_2"><circle cx="27" cy="31" fill="#CCD6DD" r="2"/></g>
</svg>